<svg xmlns="http://www.w3.org/2000/svg" width="60" height="60" viewBox="0 0 60 60">
    <g fill="#0087C6" fill-rule="nonzero">
        <path d="M57 0H3C1.3 0 0 1.3 0 3v46c0 .6.4 1 1 1h20v8h-3v2h24v-2h-3v-8h20c.6 0 1-.4 1-1V3c0-1.7-1.3-3-3-3zM2 3c0-.6.4-1 1-1h54c.6 0 1 .4 1 1v36h-3V6c0-.6-.4-1-1-1H6c-.6 0-1 .4-1 1v33H2V3zm11 14h8v-2h-8v-2h20v6H13v-2zm26 9v-2c0-2.2-1.8-4-4-4v-4h12v18H35v-4c2.2 0 4-1.8 4-4zm-4 2v-6c1.1 0 2 .9 2 2v2c0 1.1-.9 2-2 2zm-22-7h20v18H13V21zm22 15h13c.6 0 1-.4 1-1V15c0-.6-.4-1-1-1H35v-2c0-.6-.4-1-1-1H12c-.6 0-1 .4-1 1v27H7V7h46v32H35v-3zm2 22H23v-8h14v8zm21-10H2v-7h56v7z"/>
        <path d="M16 23h2v2h-2zM20 23h2v2h-2zM24 23h2v2h-2zM28 23h2v2h-2zM16 27h2v2h-2zM20 27h2v2h-2zM24 27h2v2h-2zM28 27h2v2h-2zM16 31h2v2h-2zM20 31h2v2h-2zM24 31h2v2h-2zM28 31h2v2h-2zM16 35h2v2h-2zM20 35h2v2h-2zM24 35h2v2h-2zM28 35h2v2h-2zM23 15h4v2h-4zM43 22h2v-3c0-.6-.4-1-1-1h-3v2h2v2zM45 31v-3h-2v2h-2v2h3c.6 0 1-.4 1-1z"/>
    </g>
</svg>
